{
  "id": "monaco-parts-splash",
  "colorInfo": {
    "foreground": "#cccccc",
    "editorBackground": "#1e1e1e",
    "titleBarBackground": "#3c3c3c",
    "activityBarBackground": "#333333",
    "sideBarBackground": "#252526",
    "statusBarBackground": "#007acc",
    "statusBarNoFolderBackground": "#68217a"
  },
  "layoutInfo": {
    "sideBarSide": "left",
    "editorPartMinWidth": 220,
    "titleBarHeight": 0,
    "activityBarWidth": 48,
    "sideBarWidth": 300,
    "statusBarHeight": 22
  },
  "baseTheme": "vs-dark"
}
